mode: set
gitlab.com/Yang57670838/go-endpoint-template/main.go:49.32,51.2 1 0
gitlab.com/Yang57670838/go-endpoint-template/main.go:53.27,55.2 1 0
gitlab.com/Yang57670838/go-endpoint-template/main.go:57.35,60.2 2 0
gitlab.com/Yang57670838/go-endpoint-template/main.go:62.42,64.2 1 0
gitlab.com/Yang57670838/go-endpoint-template/main.go:66.33,69.2 2 0
gitlab.com/Yang57670838/go-endpoint-template/main.go:71.13,110.30 23 0
gitlab.com/Yang57670838/go-endpoint-template/main.go:114.2,143.16 9 0
gitlab.com/Yang57670838/go-endpoint-template/main.go:146.2,165.16 16 0
gitlab.com/Yang57670838/go-endpoint-template/main.go:168.2,171.16 3 0
gitlab.com/Yang57670838/go-endpoint-template/main.go:175.2,175.46 1 0
gitlab.com/Yang57670838/go-endpoint-template/main.go:110.30,112.3 1 0
gitlab.com/Yang57670838/go-endpoint-template/main.go:143.16,145.3 1 0
gitlab.com/Yang57670838/go-endpoint-template/main.go:165.16,167.3 1 0
gitlab.com/Yang57670838/go-endpoint-template/main.go:171.16,174.3 2 0
gitlab.com/Yang57670838/go-endpoint-template/main.go:178.46,180.2 1 0
gitlab.com/Yang57670838/go-endpoint-template/main.go:182.37,186.2 3 0
gitlab.com/Yang57670838/go-endpoint-template/main.go:188.32,190.2 1 0
gitlab.com/Yang57670838/go-endpoint-template/main.go:192.33,194.2 1 0
gitlab.com/Yang57670838/go-endpoint-template/main.go:196.31,198.2 1 0
gitlab.com/Yang57670838/go-endpoint-template/main.go:200.32,202.2 1 0
gitlab.com/Yang57670838/go-endpoint-template/main.go:204.30,206.2 1 0
gitlab.com/Yang57670838/go-endpoint-template/main.go:208.29,210.2 1 0
gitlab.com/Yang57670838/go-endpoint-template/main.go:212.44,215.12 2 1
gitlab.com/Yang57670838/go-endpoint-template/main.go:219.2,220.20 2 1
gitlab.com/Yang57670838/go-endpoint-template/main.go:215.12,217.3 1 1
